…
**View Sales By Order date (Here, we perform an analysis to identify which products had the highest sales during a specific period. The lubridate library is utilized to extract the year and month from the dataset.)**

```r
my_sales_clean_data %>%
  mutate(month_name = month(order_date, label = TRUE)) %>%
  mutate(saleyear = year(order_date)) %>%
  group_by(saleyear, month_name) %>%
  summarise(total_sales_by_product = sum(total_price), .groups = "drop") %>%
  arrange(desc(saleyear), desc(month_name))
```
```r
# A tibble: 24 × 3
   saleyear month_name total_sales_by_product
      <dbl> <ord>                       <dbl>
 1     2021 Dec                         1515.
 2     2021 Nov                         1979.
 3     2021 Oct                         1290.
 4     2021 Sep                          826.
 5     2021 Aug                         1215.
 6     2021 Jul                          849.
 7     2021 Jun                         1119.
 8     2021 May                         1241.
 9     2021 Apr                         1537.
10     2021 Mar                         1405.
# ℹ 14 more rows
# ℹ Use `print(n = ...)` to see more rows
```
…
